[comment encoding = UTF-8 /]
[module generateType('http://cs.mcgill.ca/sel/ram/3.0')]

[import ca::mcgill::sel::ram::generator::common::commonHelpers /]
[import ca::mcgill::sel::ram::generator::java::javaHelpers /]


[**
 * Generates a type of the structural view.
 * @param type The type
 */]
[template public generateType(type : Type, flags : String, struct : StructuralView) /]


[**
 * Generates an enum type of the structural view.
 * If the MAVENSIGNATURE flag is set, the package statement is overriden with a full signature package reference (groupid + artifactid)
 * @param enum The enumeration type
 */]
[template public generateType(enum : REnum, flags : String, struct : StructuralView)]

[file (enum.getFileName(enum, flags), false, 'UTF-8')]
[if (flags.contains('MAVENSIGNATURE'))]package [enum.getSignaturePackageName(struct.signature)/];
[else]package [enum.getPackageName()/];
[/if]
/**
 * [enum.getTypeName()/] enumeration definition.
 * Generated by the TouchCORE code generator.
 */
public enum [enum.getTypeName()/] {
[for (literal : REnumLiteral | enum.literals) separator(',\n')]    [literal.name/][/for]
}
[/file]

[/template]
