[comment encoding = UTF-8 /]
[module dependencyBlocks('http://cs.mcgill.ca/sel/ram/3.0')]

[**
 * @Author Max
 * Generates the a dependency block antrey for a given External-Artifact.
 * @param externalArtifact
 */]
[template public generateMavenDependency(a : ArtifactSignature)]
  <dependency>
    <groupId>[a.groupId/]</groupId>
    <artifactId>[a.artifactId/]</artifactId>
    <version>[a.version/]</version>
  </dependency>
[/template]
